{
  "project_info": {
    "project_number": "91739292560",
    "firebase_url": "https://checkthiscoolplace.firebaseio.com",
    "project_id": "checkthiscoolplace",
    "storage_bucket": "checkthiscoolplace.appspot.com"
  },
  "client": [
    {
      "client_info": {
        "mobilesdk_app_id": "1:91739292560:android:e24f9134d8452fc8",
        "android_client_info": {
          "package_name": "com.coolplace.checkthis.checkthiscoolplace"
        }
      },
      "oauth_client": [
        {
          "client_id": "91739292560-ghu27fhufknrgp6jp5d3si2e35tkfiem.apps.googleusercontent.com",
          "client_type": 1,
          "android_info": {
            "package_name": "com.coolplace.checkthis.checkthiscoolplace",
            "certificate_hash": "033583818f0a3ea5d32254da5c9a8a877dc91fac"
          }
        },
        {
          "client_id": "91739292560-l3rndlsrrrat901ru278d8l7a96bhe89.apps.googleusercontent.com",
          "client_type": 3
        }
      ],
      "api_key": [
        {
          "current_key": "AIzaSyBO2fbSNy22Bagzp0XWTLa8yB3IyT5Wmtc"
        }
      ],
      "services": {
        "analytics_service": {
          "status": 1
        },
        "appinvite_service": {
          "status": 2,
          "other_platform_oauth_client": [
            {
              "client_id": "91739292560-l3rndlsrrrat901ru278d8l7a96bhe89.apps.googleusercontent.com",
              "client_type": 3
            }
          ]
        },
        "ads_service": {
          "status": 2
        }
      }
    }
  ],
  "configuration_version": "1"
}